…
```r
library(dplyr)

Attaching package: 'dplyr'
The following objects are masked from 'package:stats':

    filter, lag
The following objects are masked from 'package:base':

    intersect, setdiff, setequal, union
data(starwars)
starwars
# A tibble: 87 x 14
   name    height  mass hair_color  skin_color eye_color birth_year sex   gender
   <chr>    <int> <dbl> <chr>       <chr>      <chr>          <dbl> <chr> <chr> 
 1 Luke S…    172    77 blond       fair       blue            19   male  mascu…
 2 C-3PO      167    75 <NA>        gold       yellow         112   none  mascu…
 3 R2-D2       96    32 <NA>        white, bl… red             33   none  mascu…
 4 Darth …    202   136 none        white      yellow          41.9 male  mascu…
 5 Leia O…    150    49 brown       light      brown           19   fema… femin…
 6 Owen L…    178   120 brown, grey light      blue            52   male  mascu…
 7 Beru W…    165    75 brown       light      blue            47   fema… femin…
 8 R5-D4       97    32 <NA>        white, red red             NA   none  mascu…
 9 Biggs …    183    84 black       light      brown           24   male  mascu…
10 Obi-Wa…    182    77 auburn, wh… fair       blue-gray       57   male  mascu…
# … with 77 more rows, and 5 more variables: homeworld <chr>, species <chr>,
#   films <list>, vehicles <list>, starships <list>
```
…
If you want to directly load the SAS datafile, you can find it [here](sas/starwars.sas7bdat)
</details>

Once the data is set up, using `filter` is actually very simple.

<details><summary>Demonstration of `filter()` in R</summary>

```r
# Get only the people
filter(starwars, species == "Human")
# A tibble: 35 x 14
   name    height  mass hair_color  skin_color eye_color birth_year sex   gender
   <chr>    <int> <dbl> <chr>       <chr>      <chr>          <dbl> <chr> <chr> 
 1 Luke S…    172    77 blond       fair       blue            19   male  mascu…
 2 Darth …    202   136 none        white      yellow          41.9 male  mascu…
 3 Leia O…    150    49 brown       light      brown           19   fema… femin…
 4 Owen L…    178   120 brown, grey light      blue            52   male  mascu…
 5 Beru W…    165    75 brown       light      blue            47   fema… femin…
 6 Biggs …    183    84 black       light      brown           24   male  mascu…
 7 Obi-Wa…    182    77 auburn, wh… fair       blue-gray       57   male  mascu…
 8 Anakin…    188    84 blond       fair       blue            41.9 male  mascu…
 9 Wilhuf…    180    NA auburn, gr… fair       blue            64   male  mascu…
10 Han So…    180    80 brown       fair       brown           29   male  mascu…
# … with 25 more rows, and 5 more variables: homeworld <chr>, species <chr>,
#   films <list>, vehicles <list>, starships <list>
…
<div class="tryitout">
### Try it out {-}
Using the pokemon data, can you create a new data set or data frame (SAS and R, respectively) that has only water type pokemon? Can you write a filter statement that looks for any pokemon which has water type for either type1 or type2?

<details><summary>R</summary>

```r
poke <- read_csv("data/pokemon_ascii.csv")
Warning: 1 parsing failure.
 row       col expected actual                     file
1028 weight_kg a double      . 'data/pokemon_ascii.csv'

filter(poke, type_1 == "Water")
# A tibble: 134 x 49
   pokedex_number name  german_name generation status species type_number type_1
            <dbl> <chr> <chr>            <dbl> <chr>  <chr>         <dbl> <chr> 
 1              7 Squi… Schiggy              1 Normal Tiny T…           1 Water 
 2              8 Wart… Schillok             1 Normal Turtle…           1 Water 
 3              9 Blas… Turtok               1 Normal Shellf…           1 Water 
 4              9 Mega… Turtok               1 Normal Shellf…           1 Water 
 5             54 Psyd… Enton                1 Normal Duck P…           1 Water 
 6             55 Gold… Entoron              1 Normal Duck P…           1 Water 
 7             60 Poli… Quapsel              1 Normal Tadpol…           1 Water 
 8             61 Poli… Quaputzi             1 Normal Tadpol…           1 Water 
 9             62 Poli… Quappo               1 Normal Tadpol…           2 Water 
10             72 Tent… Tentacha             1 Normal Jellyf…           2 Water 
# … with 124 more rows, and 41 more variables: type_2 <chr>, height_m <dbl>,
#   weight_kg <dbl>, abilities_number <dbl>, ability_1 <chr>, ability_2 <chr>,
#   ability_hidden <chr>, total_points <dbl>, hp <dbl>, attack <dbl>,
#   defense <dbl>, sp_attack <dbl>, sp_defense <dbl>, speed <dbl>,
#   catch_rate <chr>, base_friendship <chr>, base_experience <chr>,
#   growth_rate <chr>, egg_type_number <dbl>, egg_type_1 <chr>,
#   egg_type_2 <chr>, percentage_male <chr>, egg_cycles <chr>,
#   against_normal <dbl>, against_fire <dbl>, against_water <dbl>,
#   against_electric <dbl>, against_grass <dbl>, against_ice <dbl>,
#   against_fight <dbl>, against_poison <dbl>, against_ground <dbl>,
#   against_flying <dbl>, against_psychic <dbl>, against_bug <dbl>,
#   against_rock <dbl>, against_ghost <dbl>, against_dragon <dbl>,
#   against_dark <dbl>, against_steel <dbl>, against_fairy <dbl>

filter(poke, type_1 == "Water" | type_2 == "Water")
# A tibble: 153 x 49
   pokedex_number name  german_name generation status species type_number type_1
            <dbl> <chr> <chr>            <dbl> <chr>  <chr>         <dbl> <chr> 
 1              7 Squi… Schiggy              1 Normal Tiny T…           1 Water 
 2              8 Wart… Schillok             1 Normal Turtle…           1 Water 
 3              9 Blas… Turtok               1 Normal Shellf…           1 Water 
 4              9 Mega… Turtok               1 Normal Shellf…           1 Water 
 5             54 Psyd… Enton                1 Normal Duck P…           1 Water 
 6             55 Gold… Entoron              1 Normal Duck P…           1 Water 
 7             60 Poli… Quapsel              1 Normal Tadpol…           1 Water 
 8             61 Poli… Quaputzi             1 Normal Tadpol…           1 Water 
 9             62 Poli… Quappo               1 Normal Tadpol…           2 Water 
10             72 Tent… Tentacha             1 Normal Jellyf…           2 Water 
# … with 143 more rows, and 41 more variables: type_2 <chr>, height_m <dbl>,
#   weight_kg <dbl>, abilities_number <dbl>, ability_1 <chr>, ability_2 <chr>,
#   ability_hidden <chr>, total_points <dbl>, hp <dbl>, attack <dbl>,
#   defense <dbl>, sp_attack <dbl>, sp_defense <dbl>, speed <dbl>,
#   catch_rate <chr>, base_friendship <chr>, base_experience <chr>,
#   growth_rate <chr>, egg_type_number <dbl>, egg_type_1 <chr>,
#   egg_type_2 <chr>, percentage_male <chr>, egg_cycles <chr>,
#   against_normal <dbl>, against_fire <dbl>, against_water <dbl>,
#   against_electric <dbl>, against_grass <dbl>, against_ice <dbl>,
…
We'll start out with the `nycflights13` package, which contains information on all flights that left a NYC airport to destinations in the US, Puerto Rico, and the US Virgin Islands.

::: {.tryitout}
You might want to try out your EDA skills from the previous module to see what you can find out about the dataset, before seeing how `select()` works.
:::


We could get a data frame of departure information for each flight:

```r
select(flights, flight, year:day, tailnum, origin, matches("dep"))
# A tibble: 336,776 x 9
   flight  year month   day tailnum origin dep_time sched_dep_time dep_delay
    <int> <int> <int> <int> <chr>   <chr>     <int>          <int>     <dbl>
 1   1545  2013     1     1 N14228  EWR         517            515         2
 2   1714  2013     1     1 N24211  LGA         533            529         4
 3   1141  2013     1     1 N619AA  JFK         542            540         2
 4    725  2013     1     1 N804JB  JFK         544            545        -1
 5    461  2013     1     1 N668DN  LGA         554            600        -6
 6   1696  2013     1     1 N39463  EWR         554            558        -4
 7    507  2013     1     1 N516JB  EWR         555            600        -5
 8   5708  2013     1     1 N829AS  LGA         557            600        -3
 9     79  2013     1     1 N593JB  JFK         557            600        -3
10    301  2013     1     1 N3ALAA  LGA         558            600        -2
# … with 336,766 more rows
```

Perhaps we want the plane and flight ID information to be the first columns:

```r
flights %>%
  select(carrier:dest, everything())
# A tibble: 336,776 x 19
   carrier flight tailnum origin dest   year month   day dep_time sched_dep_time
   <chr>    <int> <chr>   <chr>  <chr> <int> <int> <int>    <int>          <int>
 1 UA        1545 N14228  EWR    IAH    2013     1     1      517            515
 2 UA        1714 N24211  LGA    IAH    2013     1     1      533            529
 3 AA        1141 N619AA  JFK    MIA    2013     1     1      542            540
 4 B6         725 N804JB  JFK    BQN    2013     1     1      544            545
 5 DL         461 N668DN  LGA    ATL    2013     1     1      554            600
 6 UA        1696 N39463  EWR    ORD    2013     1     1      554            558
 7 B6         507 N516JB  EWR    FLL    2013     1     1      555            600
 8 EV        5708 N829AS  LGA    IAD    2013     1     1      557            600
 9 B6          79 N593JB  JFK    MCO    2013     1     1      557            600
10 AA         301 N3ALAA  LGA    ORD    2013     1     1      558            600
# … with 336,766 more rows, and 9 more variables: dep_delay <dbl>,
#   arr_time <int>, sched_arr_time <int>, arr_delay <dbl>, air_time <dbl>,
#   distance <dbl>, hour <dbl>, minute <dbl>, time_hour <dttm>
```

Note that `everything()` won't duplicate columns you've already added.

Exploring the difference between bare name selection and `all_of()`/`any_of()`

```r
flights %>%
  select(carrier, flight, tailnum, matches("time"))
# A tibble: 336,776 x 9
   carrier flight tailnum dep_time sched_dep_time arr_time sched_arr_time
   <chr>    <int> <chr>      <int>          <int>    <int>          <int>
 1 UA        1545 N14228       517            515      830            819
 2 UA        1714 N24211       533            529      850            830
 3 AA        1141 N619AA       542            540      923            850
 4 B6         725 N804JB       544            545     1004           1022
 5 DL         461 N668DN       554            600      812            837
 6 UA        1696 N39463       554            558      740            728
 7 B6         507 N516JB       555            600      913            854
 8 EV        5708 N829AS       557            600      709            723
 9 B6          79 N593JB       557            600      838            846
10 AA         301 N3ALAA       558            600      753            745
# … with 336,766 more rows, and 2 more variables: air_time <dbl>,
#   time_hour <dttm>

varlist <- c("carrier", "flight", "tailnum",
             "dep_time", "sched_dep_time", "arr_time", "sched_arr_time",
             "air_time")

flights %>%
  select(all_of(varlist))
# A tibble: 336,776 x 8
   carrier flight tailnum dep_time sched_dep_time arr_time sched_arr_time
   <chr>    <int> <chr>      <int>          <int>    <int>          <int>
 1 UA        1545 N14228       517            515      830            819
 2 UA        1714 N24211       533            529      850            830
 3 AA        1141 N619AA       542            540      923            850
 4 B6         725 N804JB       544            545     1004           1022
 5 DL         461 N668DN       554            600      812            837
 6 UA        1696 N39463       554            558      740            728
 7 B6         507 N516JB       555            600      913            854
 8 EV        5708 N829AS       557            600      709            723
 9 B6          79 N593JB       557            600      838            846
10 AA         301 N3ALAA       558            600      753            745
# … with 336,766 more rows, and 1 more variable: air_time <dbl>

varlist <- c(varlist, "whoops")

flights %>%
  select(all_of(varlist)) # this errors out b/c whoops doesn't exist
Error: Can't subset columns that don't exist.
x Column `whoops` doesn't exist.

flights %>%
select(any_of(varlist)) # this runs just fine
# A tibble: 336,776 x 8
   carrier flight tailnum dep_time sched_dep_time arr_time sched_arr_time
   <chr>    <int> <chr>      <int>          <int>    <int>          <int>
 1 UA        1545 N14228       517            515      830            819
 2 UA        1714 N24211       533            529      850            830
 3 AA        1141 N619AA       542            540      923            850
 4 B6         725 N804JB       544            545     1004           1022
 5 DL         461 N668DN       554            600      812            837
 6 UA        1696 N39463       554            558      740            728
 7 B6         507 N516JB       555            600      913            854
 8 EV        5708 N829AS       557            600      709            723
 9 B6          79 N593JB       557            600      838            846
10 AA         301 N3ALAA       558            600      753            745
# … with 336,766 more rows, and 1 more variable: air_time <dbl>
```
…
```r
pv <- read_xlsx("data/police_violence.xlsx", guess_max = 7000) %>%
  mutate(race = gsub("Race", "race", `Victim's race`),
         age = as.numeric(`Victim's age`)) %>%
  select(name = `Victim's name`, age,  
         gender = `Victim's gender`, race) 
Warning in mask$eval_all_mutate(quo): NAs introduced by coercion
# You can rename variables with a select statement
# I'm doing this b/c I don't like to use backticks if I can help it. 
# Lazy coding = best coding. 

grouped_pv <- pv  %>%
  group_by(race) 
grouped_pv
# A tibble: 7,663 x 4
# Groups:   race [7]
   name                      age gender race        
   <chr>                   <dbl> <chr>  <chr>       
 1 Eric M. Tellez             28 Male   White       
 2 Name withheld by police    NA Male   Unknown race
 3 Terry Hudson               57 Male   Black       
 4 Malik Williams             23 Male   Black       
 5 Frederick Perkins          37 Male   Black       
 6 Michael Vincent Davis      49 Male   White       
 7 Brian Elkins               47 Male   Unknown race
 8 Debra D. Arbuckle          51 Female White       
 9 Name withheld by police    NA Male   Unknown race
10 Cody McCaulou              27 Male   White       
# … with 7,653 more rows
```
…
One layer of grouping? What does that mean?


```r
tmp <- pv %>%
  group_by(gender, race) 

tmp
# A tibble: 7,663 x 4
# Groups:   gender, race [26]
   name                      age gender race        
   <chr>                   <dbl> <chr>  <chr>       
 1 Eric M. Tellez             28 Male   White       
 2 Name withheld by police    NA Male   Unknown race
 3 Terry Hudson               57 Male   Black       
 4 Malik Williams             23 Male   Black       
 5 Frederick Perkins          37 Male   Black       
 6 Michael Vincent Davis      49 Male   White       
 7 Brian Elkins               47 Male   Unknown race
 8 Debra D. Arbuckle          51 Female White       
 9 Name withheld by police    NA Male   Unknown race
10 Cody McCaulou              27 Male   White       
# … with 7,653 more rows
…
Warning in min(age, na.rm = T): no non-missing arguments to min; returning Inf
Warning in max(age, na.rm = T): no non-missing arguments to max; returning -Inf

Warning in max(age, na.rm = T): no non-missing arguments to max; returning -Inf

Warning in max(age, na.rm = T): no non-missing arguments to max; returning -Inf

Warning in max(age, na.rm = T): no non-missing arguments to max; returning -Inf

Warning in max(age, na.rm = T): no non-missing arguments to max; returning -Inf

Warning in max(age, na.rm = T): no non-missing arguments to max; returning -Inf
`summarise()` has grouped output by 'gender'. You can override using the `.groups` argument.
# A tibble: 26 x 4
# Groups:   gender [5]
   gender race             min_age max_age
   <chr>  <chr>              <dbl>   <dbl>
 1 Female Asian                 27      49
 2 Female Black                 20      93
 3 Female Hispanic              16      57
 4 Female Native American       23      52
 5 Female Pacific Islander      26      50
 6 Female Unknown race          23      74
 7 Female White                  5      89
 8 Male   Asian                 16      76
 9 Male   Black                  1     107
10 Male   Hispanic               1      80
# … with 16 more rows
```
…
Let's try a non-trivial example, using the `storms` dataset that is part of the `dplyr` package:

<details><summary>Reading in the data (R and SAS)</summary>

```r
library(dplyr)
library(lubridate) # for the make_datetime() function

Attaching package: 'lubridate'
The following objects are masked from 'package:base':

    date, intersect, setdiff, union
data(storms)
storms
# A tibble: 10,010 x 13
   name   year month   day  hour   lat  long status      category  wind pressure
   <chr> <dbl> <dbl> <int> <dbl> <dbl> <dbl> <chr>       <ord>    <int>    <int>
 1 Amy    1975     6    27     0  27.5 -79   tropical d… -1          25     1013
 2 Amy    1975     6    27     6  28.5 -79   tropical d… -1          25     1013
 3 Amy    1975     6    27    12  29.5 -79   tropical d… -1          25     1013
 4 Amy    1975     6    27    18  30.5 -79   tropical d… -1          25     1013
 5 Amy    1975     6    28     0  31.5 -78.8 tropical d… -1          25     1012
 6 Amy    1975     6    28     6  32.4 -78.7 tropical d… -1          25     1012
 7 Amy    1975     6    28    12  33.3 -78   tropical d… -1          25     1011
 8 Amy    1975     6    28    18  34   -77   tropical d… -1          30     1006
 9 Amy    1975     6    29     0  34.4 -75.8 tropical s… 0           35     1004
10 Amy    1975     6    29     6  34   -74.8 tropical s… 0           40     1002
# … with 10,000 more rows, and 2 more variables: ts_diameter <dbl>,
#   hu_diameter <dbl>
…
max_power_storm <- storms %>%
  # Storm names can be reused, so we need to have year to be sure it's the same instance
  group_by(name, year) %>%
  filter(pressure == min(pressure, na.rm = T)) %>%
  filter(wind == max(wind, na.rm = T)) %>%
  summarize(pressure = mean(pressure), 
            wind = mean(wind), 
            category = unique(category), 
            status = unique(status), 
            time = mean(time)) %>%
  arrange(time) %>%
  ungroup()
`summarise()` has grouped output by 'name'. You can override using the `.groups` argument.
max_power_storm
# A tibble: 426 x 7
   name      year pressure  wind category status         time               
   <chr>    <dbl>    <dbl> <dbl> <ord>    <chr>          <dttm>             
 1 Amy       1975      981    60 0        tropical storm 1975-07-02 12:00:00
 2 Caroline  1975      963   100 3        hurricane      1975-08-31 06:00:00
 3 Doris     1975      965    95 2        hurricane      1975-09-02 21:00:00
 4 Belle     1976      957   105 3        hurricane      1976-08-09 00:00:00
 5 Gloria    1976      970    80 1        hurricane      1976-09-30 00:00:00
 6 Anita     1977      926   150 5        hurricane      1977-09-02 06:00:00
 7 Clara     1977      993    65 1        hurricane      1977-09-08 12:00:00
 8 Evelyn    1977      994    65 1        hurricane      1977-10-15 00:00:00
 9 Amelia    1978     1005    45 0        tropical storm 1978-07-31 00:00:00
10 Bess      1978     1005    40 0        tropical storm 1978-08-07 12:00:00
# … with 416 more rows
```
…
