…
But, there's an even simpler way...

The `readr` package creates data-frame like objects called tibbles (really, they're a souped-up data frame), but it is *much* friendlier to use. Tibbles also do not have the problems with factors (see the [introduction to factors](#factors)) - they will always read characters in as characters. 
<details class="ex"><summary>`readr demo`</summary>


```r
library(readr) # Better data importing in R

read_table(url, skip = 2) # Gosh, that was much easier!
# A tibble: 121 x 24
   STID   STNM  TIME  RELH  TAIR  WSPD  WVEC  WDIR  WDSD  WSSD  WMAX  RAIN  PRES
   <chr> <dbl> <dbl> <dbl> <dbl> <dbl> <dbl> <dbl> <dbl> <dbl> <dbl> <dbl> <dbl>
 1 ACME    110     0    53  31.8   5.2   5.1   146   8.5   0.7   6.9     0  965.
 2 ADAX      1     0    55  32.4   1     0.8   108  36.5   0.4   2.2     0  976.
 3 ALTU      2     0    31  35.6   8.9   8.7   147  10.9   1.1  11.5     0  961.
 4 ALV2    116     0    27  35.8   6.7   6.7   145   8.2   1.2   9       0  957.
 5 ANT2    135     0    73  27.8   0     0       0   0     0     0       0  990.
 6 APAC    111     0    52  32.3   6.2   6.1   133   9.8   0.8   7.9     0  960.
 7 ARD2    126     0    46  32.9   2.6   2.5   150  11.8   0.5   3.6     0  979.
 8 ARNE      6     0    28  33.5   6.5   6.3   163  11.9   1.5  10       0  927.
 9 BEAV      8     0    23  34.9  11.2  11.1   165   7.3   1.4  15.2     0  921.
10 BESS      9     0    37  33.8   8.3   8.3   156   6.6   1.3  11.2     0  951.
# … with 111 more rows, and 11 more variables: SRAD <dbl>, TA9M <dbl>,
#   WS2M <dbl>, TS10 <dbl>, TB10 <dbl>, TS05 <dbl>, TS25 <dbl>, TS60 <dbl>,
#   TR05 <dbl>, TR25 <dbl>, TR60 <dbl>
```
…
