…
Now that we have a plan, lets execute that plan


<details><summary>Wide-to-long transformation in R  (WHO HIV data)</summary>

```r
hiv_tidier <- hiv %>%
  pivot_longer(-Country, names_to = "key", values_to = "rate")
hiv_tidier
# A tibble: 18,530 x 3
   Country     key                                 rate               
   <chr>       <chr>                               <chr>              
 1 Afghanistan Number of new HIV infections; 2018; 1400 [&lt;500–5100]
 2 Afghanistan Number of new HIV infections; 2017; 1300 [&lt;500–4800]
 3 Afghanistan Number of new HIV infections; 2016; 1200 [&lt;500–4200]
 4 Afghanistan Number of new HIV infections; 2015; 1100 [&lt;500–3700]
 5 Afghanistan Number of new HIV infections; 2014; 1000 [&lt;500–3200]
 6 Afghanistan Number of new HIV infections; 2013; 920 [&lt;500–2700] 
 7 Afghanistan Number of new HIV infections; 2012; 840 [&lt;500–2300] 
 8 Afghanistan Number of new HIV infections; 2011; 760 [&lt;500–2000] 
 9 Afghanistan Number of new HIV infections; 2010; 700 [&lt;500–1800] 
10 Afghanistan Number of new HIV infections; 2009; 640 [&lt;500–1600] 
# … with 18,520 more rows
```
From this point, it's pretty easy to use things we've used in the past (regular expressions, separate, extract)


```r
 hiv_tidy <- hiv_tidier %>%
  # Split the key into Rate (don't keep), year, and group (F, M, Both)
  separate(key, into = c(NA, "year", "group"), sep = "_", convert = T) %>%
  # Fix the HTML sign for less than - we could remove it as well
  mutate(rate = str_replace_all(rate, "&lt;", "<")) %>%
  # Split the rate into estimate, lower bound, and upper bound
  extract(rate, into = c("est", "lb", "ub"), regex = "([\\d\\.]{1,}) .([<\\d\\.]{1,}) - ([<\\d\\.]{1,}).", remove = T)
Warning: Expected 3 pieces. Missing pieces filled with `NA` in 3230 rows [1, 2,
3, 4, 5, 6, 7, 8, 9, 10, 11, 12, 13, 14, 15, 16, 17, 18, 19, 110, ...].
hiv_tidy
# A tibble: 18,530 x 6
   Country      year group est   lb    ub   
   <chr>       <int> <chr> <chr> <chr> <chr>
 1 Afghanistan    NA <NA>  <NA>  <NA>  <NA> 
 2 Afghanistan    NA <NA>  <NA>  <NA>  <NA> 
 3 Afghanistan    NA <NA>  <NA>  <NA>  <NA> 
 4 Afghanistan    NA <NA>  <NA>  <NA>  <NA> 
 5 Afghanistan    NA <NA>  <NA>  <NA>  <NA> 
 6 Afghanistan    NA <NA>  <NA>  <NA>  <NA> 
 7 Afghanistan    NA <NA>  <NA>  <NA>  <NA> 
 8 Afghanistan    NA <NA>  <NA>  <NA>  <NA> 
 9 Afghanistan    NA <NA>  <NA>  <NA>  <NA> 
10 Afghanistan    NA <NA>  <NA>  <NA>  <NA> 
# … with 18,520 more rows
```
…
Returning to our WHO HIV example, we might want our data to look like this:

Country | year | measurement | Both | Male | Female
------- | ---- | ----------- | ---- | ---- | ------
Afghanistan | 2018 | est | .02 | .03 | .01
 | 2018 | lb | .01 | .02 | .01
 | 2018 | ub | .04 | .06 | .03
 
As a reminder, the data currently looks like this: 

```r
hiv_tidy
# A tibble: 18,530 x 6
   Country      year group est   lb    ub   
   <chr>       <int> <chr> <chr> <chr> <chr>
 1 Afghanistan    NA <NA>  <NA>  <NA>  <NA> 
 2 Afghanistan    NA <NA>  <NA>  <NA>  <NA> 
 3 Afghanistan    NA <NA>  <NA>  <NA>  <NA> 
 4 Afghanistan    NA <NA>  <NA>  <NA>  <NA> 
 5 Afghanistan    NA <NA>  <NA>  <NA>  <NA> 
 6 Afghanistan    NA <NA>  <NA>  <NA>  <NA> 
 7 Afghanistan    NA <NA>  <NA>  <NA>  <NA> 
 8 Afghanistan    NA <NA>  <NA>  <NA>  <NA> 
 9 Afghanistan    NA <NA>  <NA>  <NA>  <NA> 
10 Afghanistan    NA <NA>  <NA>  <NA>  <NA> 
# … with 18,520 more rows
```
…
</details>

<details><summary>WHO HIV Data: long-to-wide in R</summary>

```r
hiv_tidy %>%
  pivot_longer(est:ub, names_to = "measure", values_to = "value") %>%
  # Take the opportunity to transform everything to numeric at once...
  mutate(value = parse_number(value)) %>%
  pivot_wider(names_from = group, values_from = value)
Warning: Values are not uniquely identified; output will contain list-cols.
* Use `values_fn = list` to suppress this warning.
* Use `values_fn = length` to identify where the duplicates arise
* Use `values_fn = {summary_fun}` to summarise duplicates
# A tibble: 15,810 x 7
   Country      year measure `NA`       Both      Male      Female   
   <chr>       <int> <chr>   <list>     <list>    <list>    <list>   
 1 Afghanistan    NA est     <dbl [19]> <NULL>    <NULL>    <NULL>   
 2 Afghanistan    NA lb      <dbl [19]> <NULL>    <NULL>    <NULL>   
 3 Afghanistan    NA ub      <dbl [19]> <NULL>    <NULL>    <NULL>   
 4 Afghanistan  2019 est     <NULL>     <dbl [1]> <dbl [1]> <dbl [1]>
 5 Afghanistan  2019 lb      <NULL>     <dbl [1]> <dbl [1]> <dbl [1]>
 6 Afghanistan  2019 ub      <NULL>     <dbl [1]> <dbl [1]> <dbl [1]>
 7 Afghanistan  2018 est     <NULL>     <dbl [1]> <dbl [1]> <dbl [1]>
 8 Afghanistan  2018 lb      <NULL>     <dbl [1]> <dbl [1]> <dbl [1]>
 9 Afghanistan  2018 ub      <NULL>     <dbl [1]> <dbl [1]> <dbl [1]>
10 Afghanistan  2017 est     <NULL>     <dbl [1]> <dbl [1]> <dbl [1]>
# … with 15,800 more rows
```
…
