Module 9 Introduction to Data Visualization | Stat 850: Computing Tools for Statisticians
…
# Ok, that's weird. Some movie was in theaters for 100,000 weeks? Or re-released?
filter(box, Week > 100) %>%
  group_by(Movie) %>% 
  summarize(max_week = max(Week)) %>%
  arrange(desc(max_week))
# A tibble: 120 x 2
   Movie                          max_week
   <chr>                             <dbl>
 1 Ghanchakkar                      105065
 2 The Captive                        5186
 3 The Wizard of Oz                   3869
 4 Detour (1945) (Re-Release)         3812
 5 Le Corbeau (1943) (Re-Release)     3681
 6 The Fallen Idol                    3497
 7 Monsieur Verdoux                   3456
 8 The Third Man                      3434
 9 Olivia                             3415
10 Little Fugitive                    3138
# … with 110 more rows
…
