Module 5 Manipulating Data | Stat 850: Computing Tools for Statisticians
…
5.2 Filter: Pick cases (rows) based on their values

Filter allows us to work with a subset of a larger data frame, keeping only the rows we’re interested in. We provide one or more logical conditions, and only those rows which meet the logical conditions are returned from filter(). Note that unless we store the result from filter() in the original object, we don’t change the original.

Let’s explore how it works, using the starwars dataset, which contains a comprehensive list of the characters in the Star Wars movies.

Data set up

This data set is included in the dplyr package, so we load that package and then use the data() function to load dataset into memory. The loading isn’t complete until we actually use the dataset though… so let’s print the first few rows.

library(dplyr)
data(starwars)
starwars
# A tibble: 87 x 14
   name  height  mass hair_color skin_color eye_color birth_year sex   gender
   <chr>  <int> <dbl> <chr>      <chr>      <chr>          <dbl> <chr> <chr> 
 1 Luke…    172    77 blond      fair       blue            19   male  mascu…
 2 C-3PO    167    75 <NA>       gold       yellow         112   none  mascu…
 3 R2-D2     96    32 <NA>       white, bl… red             33   none  mascu…
 4 Dart…    202   136 none       white      yellow          41.9 male  mascu…
 5 Leia…    150    49 brown      light      brown           19   fema… femin…
 6 Owen…    178   120 brown, gr… light      blue            52   male  mascu…
 7 Beru…    165    75 brown      light      blue            47   fema… femin…
 8 R5-D4     97    32 <NA>       white, red red             NA   none  mascu…
 9 Bigg…    183    84 black      light      brown           24   male  mascu…
10 Obi-…    182    77 auburn, w… fair       blue-gray       57   male  mascu…
# … with 77 more rows, and 5 more variables: homeworld <chr>, species <chr>,
#   films <list>, vehicles <list>, starships <list>
…
masculine

Stewjon

Human

If you want to directly load the SAS datafile, you can find it here

Once the data is set up, using filter is actually very simple.

Demonstration of filter() in R

# Get only the people
filter(starwars, species == "Human")
# A tibble: 35 x 14
   name  height  mass hair_color skin_color eye_color birth_year sex   gender
   <chr>  <int> <dbl> <chr>      <chr>      <chr>          <dbl> <chr> <chr> 
 1 Luke…    172    77 blond      fair       blue            19   male  mascu…
 2 Dart…    202   136 none       white      yellow          41.9 male  mascu…
 3 Leia…    150    49 brown      light      brown           19   fema… femin…
 4 Owen…    178   120 brown, gr… light      blue            52   male  mascu…
 5 Beru…    165    75 brown      light      blue            47   fema… femin…
 6 Bigg…    183    84 black      light      brown           24   male  mascu…
 7 Obi-…    182    77 auburn, w… fair       blue-gray       57   male  mascu…
 8 Anak…    188    84 blond      fair       blue            41.9 male  mascu…
 9 Wilh…    180    NA auburn, g… fair       blue            64   male  mascu…
10 Han …    180    80 brown      fair       brown           29   male  mascu…
# … with 25 more rows, and 5 more variables: homeworld <chr>, species <chr>,
#   films <list>, vehicles <list>, starships <list>
…
filter(poke, type_1 == "Water")
# A tibble: 134 x 49
   pokedex_number name  german_name generation status species type_number type_1
            <dbl> <chr> <chr>            <dbl> <chr>  <chr>         <dbl> <chr> 
 1              7 Squi… Schiggy              1 Normal Tiny T…           1 Water 
 2              8 Wart… Schillok             1 Normal Turtle…           1 Water 
 3              9 Blas… Turtok               1 Normal Shellf…           1 Water 
 4              9 Mega… Turtok               1 Normal Shellf…           1 Water 
 5             54 Psyd… Enton                1 Normal Duck P…           1 Water 
 6             55 Gold… Entoron              1 Normal Duck P…           1 Water 
 7             60 Poli… Quapsel              1 Normal Tadpol…           1 Water 
 8             61 Poli… Quaputzi             1 Normal Tadpol…           1 Water 
 9             62 Poli… Quappo               1 Normal Tadpol…           2 Water 
10             72 Tent… Tentacha             1 Normal Jellyf…           2 Water 
# … with 124 more rows, and 41 more variables: type_2 <chr>, height_m <dbl>,
#   weight_kg <dbl>, abilities_number <dbl>, ability_1 <chr>, ability_2 <chr>,
#   ability_hidden <chr>, total_points <dbl>, hp <dbl>, attack <dbl>,
#   defense <dbl>, sp_attack <dbl>, sp_defense <dbl>, speed <dbl>,
#   catch_rate <chr>, base_friendship <chr>, base_experience <chr>,
#   growth_rate <chr>, egg_type_number <dbl>, egg_type_1 <chr>,
#   egg_type_2 <chr>, percentage_male <chr>, egg_cycles <chr>,
#   against_normal <dbl>, against_fire <dbl>, against_water <dbl>,
#   against_electric <dbl>, against_grass <dbl>, against_ice <dbl>,
#   against_fight <dbl>, against_poison <dbl>, against_ground <dbl>,
#   against_flying <dbl>, against_psychic <dbl>, against_bug <dbl>,
#   against_rock <dbl>, against_ghost <dbl>, against_dragon <dbl>,
#   against_dark <dbl>, against_steel <dbl>, against_fairy <dbl>

filter(poke, type_1 == "Water" | type_2 == "Water")
# A tibble: 153 x 49
   pokedex_number name  german_name generation status species type_number type_1
            <dbl> <chr> <chr>            <dbl> <chr>  <chr>         <dbl> <chr> 
 1              7 Squi… Schiggy              1 Normal Tiny T…           1 Water 
 2              8 Wart… Schillok             1 Normal Turtle…           1 Water 
 3              9 Blas… Turtok               1 Normal Shellf…           1 Water 
 4              9 Mega… Turtok               1 Normal Shellf…           1 Water 
 5             54 Psyd… Enton                1 Normal Duck P…           1 Water 
 6             55 Gold… Entoron              1 Normal Duck P…           1 Water 
 7             60 Poli… Quapsel              1 Normal Tadpol…           1 Water 
 8             61 Poli… Quaputzi             1 Normal Tadpol…           1 Water 
 9             62 Poli… Quappo               1 Normal Tadpol…           2 Water 
10             72 Tent… Tentacha             1 Normal Jellyf…           2 Water 
# … with 143 more rows, and 41 more variables: type_2 <chr>, height_m <dbl>,
#   weight_kg <dbl>, abilities_number <dbl>, ability_1 <chr>, ability_2 <chr>,
#   ability_hidden <chr>, total_points <dbl>, hp <dbl>, attack <dbl>,
#   defense <dbl>, sp_attack <dbl>, sp_defense <dbl>, speed <dbl>,
#   catch_rate <chr>, base_friendship <chr>, base_experience <chr>,
#   growth_rate <chr>, egg_type_number <dbl>, egg_type_1 <chr>,
#   egg_type_2 <chr>, percentage_male <chr>, egg_cycles <chr>,
#   against_normal <dbl>, against_fire <dbl>, against_water <dbl>,
#   against_electric <dbl>, against_grass <dbl>, against_ice <dbl>,
…
NOTE: There were 153 observations read from the data set CLASSDAT.POKE.
      WHERE (type_1='Water') or (type_2='Water');
NOTE: The data set WORK.WATER2 has 153 observations and 49 variables.
NOTE: DATA statement used (Total process time):
      real time           0.00 seconds
      cpu time            0.00 seconds

5.2.1 Common filter operations

In dplyr, there are a few helper functions which may be useful when constructing filter statements.

row_number() - this is only used inside of another dplyr function (e.g. filter). You might want to keep only even rows, or only the first 10 rows in a table. 

filter(poke, (row_number() %% 2 == 0))
# A tibble: 514 x 49
   pokedex_number name  german_name generation status species type_number type_1
            <dbl> <chr> <chr>            <dbl> <chr>  <chr>         <dbl> <chr> 
 1              2 Ivys… Bisaknosp            1 Normal Seed P…           2 Grass 
 2              3 Mega… Bisaflor             1 Normal Seed P…           2 Grass 
 3              5 Char… Glutexo              1 Normal Flame …           1 Fire  
 4              6 Mega… Glurak               1 Normal Flame …           2 Fire  
 5              7 Squi… Schiggy              1 Normal Tiny T…           1 Water 
 6              9 Blas… Turtok               1 Normal Shellf…           1 Water 
 7             10 Cate… Raupy                1 Normal Worm P…           1 Bug   
 8             12 Butt… Smettbo              1 Normal Butter…           2 Bug   
 9             14 Kaku… Kokuna               1 Normal Cocoon…           2 Bug   
10             15 Mega… Bibor                1 Normal Poison…           2 Bug   
# … with 504 more rows, and 41 more variables: type_2 <chr>, height_m <dbl>,
#   weight_kg <dbl>, abilities_number <dbl>, ability_1 <chr>, ability_2 <chr>,
#   ability_hidden <chr>, total_points <dbl>, hp <dbl>, attack <dbl>,
#   defense <dbl>, sp_attack <dbl>, sp_defense <dbl>, speed <dbl>,
#   catch_rate <chr>, base_friendship <chr>, base_experience <chr>,
#   growth_rate <chr>, egg_type_number <dbl>, egg_type_1 <chr>,
#   egg_type_2 <chr>, percentage_male <chr>, egg_cycles <chr>,
#   against_normal <dbl>, against_fire <dbl>, against_water <dbl>,
#   against_electric <dbl>, against_grass <dbl>, against_ice <dbl>,
…
We’ll start out with the nycflights13 package, which contains information on all flights that left a NYC airport to destinations in the US, Puerto Rico, and the US Virgin Islands.

You might want to try out your EDA skills from the previous module to see what you can find out about the dataset, before seeing how select() works.

We could get a data frame of departure information for each flight:

select(flights, flight, year:day, tailnum, origin, matches("dep"))
# A tibble: 336,776 x 9
   flight  year month   day tailnum origin dep_time sched_dep_time dep_delay
    <int> <int> <int> <int> <chr>   <chr>     <int>          <int>     <dbl>
 1   1545  2013     1     1 N14228  EWR         517            515         2
 2   1714  2013     1     1 N24211  LGA         533            529         4
 3   1141  2013     1     1 N619AA  JFK         542            540         2
 4    725  2013     1     1 N804JB  JFK         544            545        -1
 5    461  2013     1     1 N668DN  LGA         554            600        -6
 6   1696  2013     1     1 N39463  EWR         554            558        -4
 7    507  2013     1     1 N516JB  EWR         555            600        -5
 8   5708  2013     1     1 N829AS  LGA         557            600        -3
 9     79  2013     1     1 N593JB  JFK         557            600        -3
10    301  2013     1     1 N3ALAA  LGA         558            600        -2
# … with 336,766 more rows

Perhaps we want the plane and flight ID information to be the first columns:

flights %>%
  select(carrier:dest, everything())
# A tibble: 336,776 x 19
   carrier flight tailnum origin dest   year month   day dep_time sched_dep_time
   <chr>    <int> <chr>   <chr>  <chr> <int> <int> <int>    <int>          <int>
 1 UA        1545 N14228  EWR    IAH    2013     1     1      517            515
 2 UA        1714 N24211  LGA    IAH    2013     1     1      533            529
 3 AA        1141 N619AA  JFK    MIA    2013     1     1      542            540
 4 B6         725 N804JB  JFK    BQN    2013     1     1      544            545
 5 DL         461 N668DN  LGA    ATL    2013     1     1      554            600
 6 UA        1696 N39463  EWR    ORD    2013     1     1      554            558
 7 B6         507 N516JB  EWR    FLL    2013     1     1      555            600
 8 EV        5708 N829AS  LGA    IAD    2013     1     1      557            600
 9 B6          79 N593JB  JFK    MCO    2013     1     1      557            600
10 AA         301 N3ALAA  LGA    ORD    2013     1     1      558            600
# … with 336,766 more rows, and 9 more variables: dep_delay <dbl>,
#   arr_time <int>, sched_arr_time <int>, arr_delay <dbl>, air_time <dbl>,
#   distance <dbl>, hour <dbl>, minute <dbl>, time_hour <dttm>

Note that everything() won’t duplicate columns you’ve already added.

Exploring the difference between bare name selection and all_of()/any_of()

flights %>% 
  select(carrier, flight, tailnum, matches("time"))
# A tibble: 336,776 x 9
   carrier flight tailnum dep_time sched_dep_time arr_time sched_arr_time
   <chr>    <int> <chr>      <int>          <int>    <int>          <int>
 1 UA        1545 N14228       517            515      830            819
 2 UA        1714 N24211       533            529      850            830
 3 AA        1141 N619AA       542            540      923            850
 4 B6         725 N804JB       544            545     1004           1022
 5 DL         461 N668DN       554            600      812            837
 6 UA        1696 N39463       554            558      740            728
 7 B6         507 N516JB       555            600      913            854
 8 EV        5708 N829AS       557            600      709            723
 9 B6          79 N593JB       557            600      838            846
10 AA         301 N3ALAA       558            600      753            745
# … with 336,766 more rows, and 2 more variables: air_time <dbl>,
#   time_hour <dttm>

varlist <- c("carrier", "flight", "tailnum", 
             "dep_time", "sched_dep_time", "arr_time", "sched_arr_time", 
             "air_time")

flights %>%
  select(all_of(varlist))
# A tibble: 336,776 x 8
   carrier flight tailnum dep_time sched_dep_time arr_time sched_arr_time
   <chr>    <int> <chr>      <int>          <int>    <int>          <int>
 1 UA        1545 N14228       517            515      830            819
 2 UA        1714 N24211       533            529      850            830
 3 AA        1141 N619AA       542            540      923            850
 4 B6         725 N804JB       544            545     1004           1022
 5 DL         461 N668DN       554            600      812            837
 6 UA        1696 N39463       554            558      740            728
 7 B6         507 N516JB       555            600      913            854
 8 EV        5708 N829AS       557            600      709            723
 9 B6          79 N593JB       557            600      838            846
10 AA         301 N3ALAA       558            600      753            745
# … with 336,766 more rows, and 1 more variable: air_time <dbl>

varlist <- c(varlist, "whoops")

flights %>%
  select(all_of(varlist)) # this errors out b/c whoops doesn't exist
Error: Can't subset columns that don't exist.
[31mx[39m Column `whoops` doesn't exist.

flights %>%
  select(any_of(varlist)) # this runs just fine
# A tibble: 336,776 x 8
   carrier flight tailnum dep_time sched_dep_time arr_time sched_arr_time
   <chr>    <int> <chr>      <int>          <int>    <int>          <int>
 1 UA        1545 N14228       517            515      830            819
 2 UA        1714 N24211       533            529      850            830
 3 AA        1141 N619AA       542            540      923            850
 4 B6         725 N804JB       544            545     1004           1022
 5 DL         461 N668DN       554            600      812            837
 6 UA        1696 N39463       554            558      740            728
 7 B6         507 N516JB       555            600      913            854
 8 EV        5708 N829AS       557            600      709            723
 9 B6          79 N593JB       557            600      838            846
10 AA         301 N3ALAA       558            600      753            745
# … with 336,766 more rows, and 1 more variable: air_time <dbl>
…
