Module 6 Transforming Data | Stat 850: Computing Tools for Statisticians
…
[[5]]
[1] "Alabama"    "State"      "University"

[[6]]
[1] "The"        "University" "of"         "Alabama"   
                       # (but the - has to be at the start or the end)

So we could take the time to clean up everything, making sure that e.g. San Diego is treated as a single word, but that’s a pain in the rear. Instead, let’s just see what happens if we brute-force it.

tmp <- college %>%
  select(INSTNM, State) %>% 
  mutate(name_words = str_split(INSTNM, '[ -]')) # This is a list-column
tmp
# A tibble: 6,806 x 3
   INSTNM                              State   name_words
   <chr>                               <chr>   <list>    
 1 Alabama A & M University            Alabama <chr [5]> 
 2 University of Alabama at Birmingham Alabama <chr [5]> 
 3 Amridge University                  Alabama <chr [2]> 
 4 University of Alabama in Huntsville Alabama <chr [5]> 
 5 Alabama State University            Alabama <chr [3]> 
 6 The University of Alabama           Alabama <chr [4]> 
 7 Central Alabama Community College   Alabama <chr [4]> 
 8 Athens State University             Alabama <chr [3]> 
 9 Auburn University at Montgomery     Alabama <chr [4]> 
10 Auburn University                   Alabama <chr [2]> 
# … with 6,796 more rows
unnest(tmp) # Unnest duplicates rows so that the expanded data frame has the 
Warning: `cols` is now required when using unnest().
Please use `cols = c(name_words)`
# A tibble: 28,510 x 3
   INSTNM                              State   name_words
   <chr>                               <chr>   <chr>     
 1 Alabama A & M University            Alabama Alabama   
 2 Alabama A & M University            Alabama A         
 3 Alabama A & M University            Alabama &         
 4 Alabama A & M University            Alabama M         
 5 Alabama A & M University            Alabama University
 6 University of Alabama at Birmingham Alabama University
 7 University of Alabama at Birmingham Alabama of        
 8 University of Alabama at Birmingham Alabama Alabama   
 9 University of Alabama at Birmingham Alabama at        
10 University of Alabama at Birmingham Alabama Birmingham
# … with 28,500 more rows
…
Read each value into a separate column that’s numeric

Rename the columns

Clean up any extra variables hanging around.

Now that we have a plan, lets execute that plan

Wide-to-long transformation in R (WHO HIV data)

hiv_tidier <- hiv %>%
  pivot_longer(-Country, names_to = "key", values_to = "rate")
hiv_tidier
# A tibble: 14,790 x 3
   Country     key              rate                  
   <chr>       <chr>            <chr>                 
 1 Afghanistan Rate_2018_Both   0.02 [0.01 - 0.04]    
 2 Afghanistan Rate_2018_Male   0.03 [0.02 - 0.06]    
 3 Afghanistan Rate_2018_Female 0.01 [&lt;0.01 - 0.03]
 4 Afghanistan Rate_2017_Both   0.02 [0.01 - 0.04]    
 5 Afghanistan Rate_2017_Male   0.03 [0.02 - 0.06]    
 6 Afghanistan Rate_2017_Female 0.01 [&lt;0.01 - 0.03]
 7 Afghanistan Rate_2016_Both   0.02 [0.01 - 0.04]    
 8 Afghanistan Rate_2016_Male   0.03 [0.02 - 0.06]    
 9 Afghanistan Rate_2016_Female 0.01 [&lt;0.01 - 0.02]
10 Afghanistan Rate_2015_Both   0.02 [0.01 - 0.04]    
# … with 14,780 more rows

From this point, it’s pretty easy to use things we’ve used in the past (regular expressions, separate, extract)

 hiv_tidy <- hiv_tidier %>%
  # Split the key into Rate (don't keep), year, and group (F, M, Both)
  separate(key, into = c(NA, "year", "group"), sep = "_", convert = T) %>%
  # Fix the HTML sign for less than - we could remove it as well
  mutate(rate = str_replace_all(rate, "&lt;", "<")) %>%
  # Split the rate into estimate, lower bound, and upper bound
  extract(rate, into = c("est", "lb", "ub"), regex = "([\\d\\.]{1,}) .([<\\d\\.]{1,}) - ([<\\d\\.]{1,}).", remove = T)
hiv_tidy
# A tibble: 14,790 x 6
   Country      year group  est   lb    ub   
   <chr>       <int> <chr>  <chr> <chr> <chr>
 1 Afghanistan  2018 Both   0.02  0.01  0.04 
 2 Afghanistan  2018 Male   0.03  0.02  0.06 
 3 Afghanistan  2018 Female 0.01  <0.01 0.03 
 4 Afghanistan  2017 Both   0.02  0.01  0.04 
 5 Afghanistan  2017 Male   0.03  0.02  0.06 
 6 Afghanistan  2017 Female 0.01  <0.01 0.03 
 7 Afghanistan  2016 Both   0.02  0.01  0.04 
 8 Afghanistan  2016 Male   0.03  0.02  0.06 
 9 Afghanistan  2016 Female 0.01  <0.01 0.02 
10 Afghanistan  2015 Both   0.02  0.01  0.04 
# … with 14,780 more rows
…
2018
ub
.04
.06
.03

As a reminder, the data currently looks like this:

hiv_tidy
# A tibble: 14,790 x 6
   Country      year group  est   lb    ub   
   <chr>       <int> <chr>  <chr> <chr> <chr>
 1 Afghanistan  2018 Both   0.02  0.01  0.04 
 2 Afghanistan  2018 Male   0.03  0.02  0.06 
 3 Afghanistan  2018 Female 0.01  <0.01 0.03 
 4 Afghanistan  2017 Both   0.02  0.01  0.04 
 5 Afghanistan  2017 Male   0.03  0.02  0.06 
 6 Afghanistan  2017 Female 0.01  <0.01 0.03 
 7 Afghanistan  2016 Both   0.02  0.01  0.04 
 8 Afghanistan  2016 Male   0.03  0.02  0.06 
 9 Afghanistan  2016 Female 0.01  <0.01 0.02 
10 Afghanistan  2015 Both   0.02  0.01  0.04 
# … with 14,780 more rows
…
Afghanistan
2018
Male
est
0.03

WHO HIV Data: long-to-wide in R

hiv_tidy %>%
  pivot_longer(est:ub, names_to = "measure", values_to = "value") %>%
  # Take the opportunity to transform everything to numeric at once...
  mutate(value = parse_number(value)) %>%
  pivot_wider(names_from = group, values_from = value)
# A tibble: 14,790 x 6
   Country      year measure  Both  Male Female
   <chr>       <int> <chr>   <dbl> <dbl>  <dbl>
 1 Afghanistan  2018 est      0.02  0.03   0.01
 2 Afghanistan  2018 lb       0.01  0.02   0.01
 3 Afghanistan  2018 ub       0.04  0.06   0.03
 4 Afghanistan  2017 est      0.02  0.03   0.01
 5 Afghanistan  2017 lb       0.01  0.02   0.01
 6 Afghanistan  2017 ub       0.04  0.06   0.03
 7 Afghanistan  2016 est      0.02  0.03   0.01
 8 Afghanistan  2016 lb       0.01  0.02   0.01
 9 Afghanistan  2016 ub       0.04  0.06   0.02
10 Afghanistan  2015 est      0.02  0.03   0.01
# … with 14,780 more rows
…
